…
top20 %>% 
  ggplot() +
  geom_col(aes(x=reorder(Dest_state,sum_n),y=n,fill=race))+
  theme(axis.text.x = element_text(angle=45,vjust=1,hjust=1)) +
  labs(x = "Destination State", y = "Total Commute Population", color="race")

<img src="{{< blogdown/postref >}}index_files/figure-html/unnamed-chunk-3-1.png" width="672" />

Boston_in<- o_MA %>%
  filter(Dest_state=="Massachusetts")%>% filter(Original_CZ=="Boston")

Boston_in

## # A tibble: 125 × 13
##    Num_ori…¹ Origi…² Origi…³ Num_d…⁴ Dest_CZ Dest_…⁵     n From_…⁶ Live_…⁷ race 
##        <dbl> <chr>   <chr>     <dbl> <chr>   <chr>   <dbl>   <dbl>   <dbl> <chr>
##  1     20500 Boston  Massac…   20500 Boston  Massac…  1592    1942    2083 Asian
##  2     20500 Boston  Massac…   20403 Oak Bl… Massac…     0    1942       2 Asian
##  3     20500 Boston  Massac…   20902 Pittsf… Massac…     1    1942       8 Asian
##  4     20500 Boston  Massac…   20800 Spring… Massac…     5    1942      90 Asian
##  5     20500 Boston  Massac…   20402 Nantuc… Massac…     0    1942       2 Asian
##  6     20500 Boston  Massac…   20403 Oak Bl… Massac…     1    3072       2 Asian
##  7     20500 Boston  Massac…   20800 Spring… Massac…     8    3072     134 Asian
##  8     20500 Boston  Massac…   20402 Nantuc… Massac…     0    3072       1 Asian
##  9     20500 Boston  Massac…   20500 Boston  Massac…  2540    3072    3202 Asian
## 10     20500 Boston  Massac…   20902 Pittsf… Massac…     1    3072      27 Asian
## # … with 115 more rows, 3 more variables: income <dbl>, pr_d_o <dbl>,
## #   pr_o_d <dbl>, and abbreviated variable names ¹​Num_original_CZ,
## #   ²​Original_CZ, ³​Original_State, ⁴​Num_dest_CZ, ⁵​Dest_state, ⁶​From_origin,
## #   ⁷​Live_in_dest
…
